<?xml version="1.0" encoding="UTF-8"?>
<session version="1.0">
<refactoring accessors="true" comment="Delete element from project &apos;Duck&apos;&#x0A;- Original project: &apos;Duck&apos;&#x0A;- Original element: &apos;com.ilcdev.MiniDuckSimulator.java&apos;" description="Delete element" element1="/src&lt;com.ilcdev{MiniDuckSimulator.java" elements="1" flags="589830" id="org.eclipse.jdt.ui.delete" resources="0" stamp="1436808282974" subPackages="false" version="1.0"/>
</session>